estat-api
…
$area
# A tibble: 1 x 3
  `@code` `@name` `@level`
  <chr>   <chr>   <chr>   
1 00000   全国    1       

$time
# A tibble: 69 x 3
   `@code`    `@name` `@level`
   <chr>      <chr>   <chr>   
 1 2016000000 2016年  1       
 2 2015000000 2015年  1       
 3 2014000000 2014年  1       
 4 2013000000 2013年  1       
 5 2012000000 2012年  1       
 6 2011000000 2011年  1       
 7 2010000000 2010年  1       
 8 2009000000 2009年  1       
 9 2008000000 2008年  1       
10 2007000000 2007年  1       
# ... with 59 more rows
…
