tidygraph
…
について解説する。

また，ネットワークの階層的構造における，連結性，階層性，効率性，最小上界性についても触れる。

使用データ

ここではggraphパッケージのhighschoolデータを用いる。

これはsnaパッケージのcolemanデータと同じである。

社会学者ジェームズ・コールマンによる73人の男子高校生の友人ネットワークであり，1957年秋と1958年春に調査した2回分のデータが辺リストで格納されている。

highschool %>% as_tibble()

# A tibble: 506 x 3
    from    to  year
   <dbl> <dbl> <dbl>
 1     1    14  1957
 2     1    15  1957
 3     1    21  1957
 4     1    54  1957
 5     1    55  1957
 6     2    21  1957
 7     2    22  1957
 8     3     9  1957
 9     3    15  1957
10     4     5  1957
# ... with 496 more rows
…
